{
    "KPlugin": {
        "Authors": [
            {
                "Email": "d82ks8djf82msd83hf8sc02lqb5gh5@gmail.com",
                "Name": "Maciej Poleski",
                "Name[az]": "Maciej Poleski",
                "Name[ca@valencia]": "Maciej Poleski",
                "Name[ca]": "Maciej Poleski",
                "Name[cs]": "Maciej Poleski",
                "Name[de]": "Maciej Poleski",
                "Name[el]": "Maciej Poleski",
                "Name[en_GB]": "Maciej Poleski",
                "Name[es]": "Maciej Poleski",
                "Name[et]": "Maciej Poleski",
                "Name[eu]": "Maciej Poleski",
                "Name[fr]": "Maciej Poleski",
                "Name[gl]": "Maciej Poleski",
                "Name[it]": "Maciej Poleski",
                "Name[ka]": "მაციე პოლესკი",
                "Name[ko]": "Maciej Poleski",
                "Name[nl]": "Maciej Poleski",
                "Name[nn]": "Maciej Poleski",
                "Name[pl]": "Maciej Poleski",
                "Name[pt]": "Maciej Poleski",
                "Name[pt_BR]": "Maciej Poleski",
                "Name[ru]": "Maciej Poleski",
                "Name[sk]": "Maciej Poleski",
                "Name[sl]": "Maciej Poleski",
                "Name[sv]": "Maciej Poleski",
                "Name[tr]": "Maciej Poleski",
                "Name[uk]": "Maciej Poleski",
                "Name[x-test]": "xxMaciej Poleskixx",
                "Name[zh_CN]": "Maciej Poleski"
            }
        ],
        "Category": "Version Control",
        "Description": "This plugin integrates Bazaar to KDevelop",
        "Description[ar]": "تكامل هذه الملحقة مطوّرك ببازار",
        "Description[az]": "Bu qoşma Bazaar'ı KDevelop'a inteqrasiya edir",
        "Description[ca@valencia]": "Este connector integra Bazaar a KDevelop",
        "Description[ca]": "Aquest connector integra el Bazaar al KDevelop",
        "Description[cs]": "Tento modul integruje podporu pro Bazaar v KDevelop",
        "Description[de]": "Dieses Modul integriert Bazaar in KDevelop",
        "Description[el]": "Αυτό το πρόσθετο ενσωματώνει το Bazaar στο KDevelop",
        "Description[en_GB]": "This plugin integrates Bazaar to KDevelop",
        "Description[es]": "Este complemento integra Bazaar en KDevelop",
        "Description[et]": "See plugin lõimib Bazaari KDevelopiga",
        "Description[eu]": "Plugin honek Bazaar KDevelopen integratzen du",
        "Description[fr]": "Ce module intègre Bazaar dans KDevelop",
        "Description[gl]": "Este complemento integra Bazaar con KDevelop",
        "Description[it]": "Questa estensione integra Bazaar in KDevelop",
        "Description[ka]": "KDevelop-ის Bazaar-თან ინტეგრაციის დამატება",
        "Description[ko]": "이 플러그인은 KDevelop에 Bazaar를 통합합니다",
        "Description[nl]": "Deze plugin integreert Bazaar in KDevelop",
        "Description[pl]": "Wplata Bazaar w KDevelop",
        "Description[pt]": "Este 'plugin' integra o Bazaar no KDevelop",
        "Description[pt_BR]": "Esta extensão integra o Bazaar ao KDevelop",
        "Description[ru]": "Это расширение интегрирует в KDevelop поддержку Bazaar",
        "Description[sk]": "Tento plugin integruje Bazaar do KDevelop.",
        "Description[sl]": "Ta vstavek v KDevelop vgradi Bazaar",
        "Description[sv]": "Insticksprogrammet integrerar Bazaar i KDevelop",
        "Description[tr]": "Bu eklenti Bazaar uygulamasını KDevelop ile bütünleştirir",
        "Description[uk]": "За допомогою цього додатка можна інтегрувати Bazaar до KDevelop",
        "Description[x-test]": "xxThis plugin integrates Bazaar to KDevelopxx",
        "Description[zh_CN]": "此插件将 Bazaar 整合到 KDevelop",
        "Description[zh_TW]": "此外掛程式將 Bazaar 整合進 KDevelop 內",
        "Icon": "bazaar",
        "Id": "kdevbazaar",
        "License": "GPL",
        "Name": "Bazaar Support",
        "Name[ar]": "دعم بازار",
        "Name[az]": "Bazaar dəstəyi",
        "Name[bg]": "Поддръжка на Bazaar",
        "Name[ca@valencia]": "Implementació de Bazaar",
        "Name[ca]": "Implementació de Bazaar",
        "Name[cs]": "Podpora Bazaar",
        "Name[da]": "Bazaar-understøttelse",
        "Name[de]": "Bazaar-Unterstützung",
        "Name[el]": "Υποστήριξη Bazaar",
        "Name[en_GB]": "Bazaar Support",
        "Name[es]": "Implementación de Bazaar",
        "Name[et]": "Bazaari toetus",
        "Name[eu]": "Bazaar bateragarritasuna",
        "Name[fr]": "Prise en charge de Bazaar",
        "Name[ga]": "Tacaíocht Bazaar",
        "Name[gl]": "Compatibilidade con Bazaar",
        "Name[it]": "Supporto per Bazaar",
        "Name[ka]": "Bazaar-ის მხარდაჭერა",
        "Name[kk]": "Bazaar қолдауы",
        "Name[ko]": "Bazaar 지원",
        "Name[nb]": "Bazaar-støtte",
        "Name[nds]": "Bazaar-Ünnerstütten",
        "Name[nl]": "Ondersteuning van Bazaar",
        "Name[nn]": "DPMS-støtte",
        "Name[pl]": "Obsługa Bazaar",
        "Name[pt]": "Suporte para o Bazaar",
        "Name[pt_BR]": "Suporte a Bazaar",
        "Name[ru]": "Поддержка Bazaar",
        "Name[sk]": "Podpora Bazaar",
        "Name[sl]": "Podpora za Bazaar",
        "Name[sv]": "Bazaar-stöd",
        "Name[tr]": "Bazaar Desteği",
        "Name[ug]": "Bazaar قوللىشى",
        "Name[uk]": "Підтримка Bazaar",
        "Name[x-test]": "xxBazaar Supportxx",
        "Name[zh_CN]": "Bazaar 支持",
        "Name[zh_TW]": "Bazaar 支援",
        "Version": "1.0"
    },
    "X-KDevelop-Interfaces": [
        "org.kdevelop.IBasicVersionControl",
        "org.kdevelop.IDistributedVersionControl"
    ],
    "X-KDevelop-Mode": "GUI"
}
