{
    "KPlugin": {
        "Description": "Allows to use custom buildsystems for KDevelop projects",
        "Description[az]": "Fərdi inşaetmə sistemlərini (buildsistems) KDevelop layihələri üçün istifadə etməyə imkan verir",
        "Description[bs]": "DOpušta korištene vlastitih sistema za gradnju KDevelop projekata",
        "Description[ca@valencia]": "Permet utilitzar sistemes de construcció personalitzats per a projectes de KDevelop",
        "Description[ca]": "Permet utilitzar sistemes de construcció personalitzats per a projectes del KDevelop",
        "Description[de]": "Ermöglicht ein benutzerdefiniertes Erstellungssystem für KDevelop-Projekte",
        "Description[el]": "Επιτρέπει τη χρήση προσαρμοσμένων συστημάτων κατασκευής για έργα του KDevelop",
        "Description[en_GB]": "Allows to use custom build systems for KDevelop projects",
        "Description[es]": "Permite el uso de sistemas de compilación personalizados en proyectos de KDevelop",
        "Description[et]": "Võimaldab kasutada KDevelopi projektides kohandatud ehitamissüsteeme.",
        "Description[eu]": "KDevelop proiektuentzako eraiketa-sistema pertsonalizatuak erabiltzen uzten du.",
        "Description[fi]": "Mahdollistaa omien käännösjärjestelmien käytön KDevelop-projekteissa",
        "Description[fr]": "Permet d'utiliser des systèmes de construction personnalisés pour des projets KDevelop",
        "Description[gl]": "Permite empregar sistemas de construción personalizados cos proxectos de KDevelop.",
        "Description[it]": "Permette di usare buildsystem personalizzati per i progetti di KDevelop",
        "Description[ko]": "KDevelop에서 사용자 정의 빌드 시스템을 사용합니다",
        "Description[nl]": "Staat toe eigengemaakte bouwsystemen voor projecten van KDevelop te gebruiken",
        "Description[pl]": "Umożliwia stosowanie własnych systemów budowania dla projektów KDevelop",
        "Description[pt]": "Permite usar sistemas de compilação personalizados para projectos do KDevelop",
        "Description[pt_BR]": "Permite usar sistemas de compilação personalizados para projetos do KDevelop",
        "Description[ru]": "Позволяет использовать для проектов KDevelop собственные системы сборки",
        "Description[sk]": "Povolí použiť vlastné buildovacie systémy pre projekty KDevelop",
        "Description[sl]": "Dovoli uporabo sistemov za izgradnjo po meri za projekte KDevelop",
        "Description[sv]": "Gör det möjligt att använda egna byggsystem för projekt i KDevelop",
        "Description[tr]": "KDevelop projeleri için özel inşa sistemlerinin kullanılmasına izin verir",
        "Description[uk]": "Надає змогу використовувати нетипові системи збирання у проєктах KDevelop",
        "Description[x-test]": "xxAllows to use custom buildsystems for KDevelop projectsxx",
        "Description[zh_CN]": "允许对 KDevelop 工程使用自定义构建系统",
        "Icon": "kdevelop",
        "Id": "KDevCustomBuildSystem",
        "Name": "Custom Build System",
        "Name[az]": "Fərdi qurma sistemi",
        "Name[ca@valencia]": "Sistema de construcció personalitzat",
        "Name[ca]": "Sistema de construcció personalitzat",
        "Name[cs]": "Vlastní systém pro sestavení",
        "Name[de]": "Eigenes Build-System",
        "Name[el]": "Προσαρμοσμένο σύστημα κατασκευής",
        "Name[en_GB]": "Custom Build System",
        "Name[es]": "Sistema de construcción personalizado",
        "Name[et]": "Kohandatud ehitamissüsteem",
        "Name[eu]": "Eraiketa sistema pertsonalizatua",
        "Name[fr]": "Système personnalisé de compilation",
        "Name[gl]": "Sistema de construción personalizado",
        "Name[it]": "Sistema di compilazione personalizzato",
        "Name[ka]": "აგების მორგებული სისტემა",
        "Name[ko]": "사용자 정의 빌드 시스템",
        "Name[nl]": "Zelf gebouwd systeem",
        "Name[pl]": "Własny system budowania",
        "Name[pt]": "Sistema de Compilação Personalizado",
        "Name[pt_BR]": "Sistema de compilação personalizado",
        "Name[ru]": "Собственная система сборки",
        "Name[sk]": "Vlastný zostavovací systém",
        "Name[sl]": "Sistem za izgradnjo po meri",
        "Name[sv]": "Eget byggsystem",
        "Name[tr]": "Özel İnşa Sistemi",
        "Name[uk]": "Нетипова система збирання",
        "Name[x-test]": "xxCustom Build Systemxx",
        "Name[zh_CN]": "自定义构建系统"
    },
    "X-KDevelop-Category": "Project",
    "X-KDevelop-IRequired": [
        "org.kdevelop.IOutputView"
    ],
    "X-KDevelop-Interfaces": [
        "org.kdevelop.IProjectBuilder",
        "org.kdevelop.IProjectFileManager",
        "org.kdevelop.IBuildSystemManager"
    ],
    "X-KDevelop-Mode": "NoGUI"
}
