{
    "KPlugin": {
        "Authors": [
            {
                "Name": "Hamish Rodda",
                "Name[ar]": "Hamish Rodda",
                "Name[az]": "Hamish Rodda",
                "Name[ca@valencia]": "Hamish Rodda",
                "Name[ca]": "Hamish Rodda",
                "Name[cs]": "Hamish Rodda",
                "Name[de]": "Hamish Rodda",
                "Name[el]": "Hamish Rodda",
                "Name[en_GB]": "Hamish Rodda",
                "Name[es]": "Hamish Rodda",
                "Name[et]": "Hamish Rodda",
                "Name[eu]": "Hamish Rodda",
                "Name[fr]": "Hamish Rodda",
                "Name[gl]": "Hamish Rodda",
                "Name[it]": "Hamish Rodda",
                "Name[ka]": "ჰამიშ როდდა",
                "Name[ko]": "Hamish Rodda",
                "Name[nl]": "Hamish Rodda",
                "Name[nn]": "Hamish Rodda",
                "Name[pl]": "Hamish Rodda",
                "Name[pt]": "Hamish Rodda",
                "Name[pt_BR]": "Hamish Rodda",
                "Name[ru]": "Hamish Rodda",
                "Name[sk]": "Hamish Rodda",
                "Name[sl]": "Hamish Rodda",
                "Name[sv]": "Hamish Rodda",
                "Name[tr]": "Hamish Rodda",
                "Name[uk]": "Hamish Rodda",
                "Name[x-test]": "xxHamish Roddaxx",
                "Name[zh_CN]": "Hamish Rodda"
            }
        ],
        "Category": "Utilities",
        "Description": "This plugin shows errors in source code.",
        "Description[ar]": "تظهر هذه الملحقة الأخطاء في الشِّفرة المصدريّة.",
        "Description[az]": "Bu qoşma, qaynaq kodundakı xətaları göstərir.",
        "Description[ca@valencia]": "Este connector permet mostrar errors en el codi font.",
        "Description[ca]": "Aquest connector permet mostrar errors en el codi font.",
        "Description[cs]": "Tento zásuvný modul ukazuje chyby ve zdrojovém kódu.",
        "Description[de]": "Dieses Modul zeigt Fehler im Quelltext an.",
        "Description[el]": "Αυτό το πρόσθετο εμφανίζει τα λάθη στον πηγαίο κώδικα.",
        "Description[en_GB]": "This plugin shows errors in source code.",
        "Description[es]": "Este complemento muestra errores en el código fuente.",
        "Description[et]": "See plugin näitab vigu lähtekoodis.",
        "Description[eu]": "Plugin honek iturri-kodean erroreak erakusten ditu.",
        "Description[fr]": "Ce module affiche les erreurs dans le code source.",
        "Description[gl]": "Este complemento mostra erros no código fonte.",
        "Description[it]": "Questa estensione mostra gli errori nel codice sorgente.",
        "Description[ko]": "이 플러그인은 소스 코드의 오류를 표시합니다.",
        "Description[nl]": "Deze plugin toont fouten in broncode",
        "Description[pl]": "Pokazuje błędy w kodzie źródłowym.",
        "Description[pt]": "Este 'plugin' mostra os erros no código-fonte.",
        "Description[pt_BR]": "Este plugin apresenta os erros no código-fonte.",
        "Description[ru]": "Это расширение показывает ошибки в исходном коде",
        "Description[sk]": "Tento plugin ukáže chyby v zdrojovom kóde.",
        "Description[sl]": "Vstavek prikazuje napake v izvorni kodi.",
        "Description[sv]": "Insticksprogrammet visar fel i källkod.",
        "Description[tr]": "Bu eklenti kaynak koddaki hataları gösterir.",
        "Description[uk]": "За допомогою цього додатка можна переглянути повідомлення про помилки у коді.",
        "Description[x-test]": "xxThis plugin shows errors in source code.xx",
        "Description[zh_CN]": "此插件显示源代码中的错误。",
        "Description[zh_TW]": "此外掛程式顯示源碼中的錯誤。",
        "Icon": "emblem-important",
        "Id": "kdevproblemreporter",
        "License": "LGPL",
        "Name": "Problem Reporter View",
        "Name[ar]": "عرض مبلّغ المشاكل",
        "Name[az]": "Problem hesabatçısı görünüşü",
        "Name[bg]": "Преглед на съобщенията за грешки",
        "Name[bs]": "Pregled pomoću prikazivača problema",
        "Name[ca@valencia]": "Vista del notificador de problemes",
        "Name[ca]": "Vista del notificador de problemes",
        "Name[cs]": "Pohled oznamovatele problému",
        "Name[da]": "Visning af problemrapportering",
        "Name[de]": "Ansicht für Fehlerberichte",
        "Name[el]": "Προβολή ανταποκριτή προβλημάτων",
        "Name[en_GB]": "Problem Reporter View",
        "Name[es]": "Vista del notificador de problemas",
        "Name[et]": "Probleemide teavitaja vaade",
        "Name[eu]": "Arazo-salatzaile ikuspegia",
        "Name[fr]": "Vue du rapporteur de problèmes",
        "Name[gl]": "Vista do relator de problemas",
        "Name[hu]": "Hibajelentő nézet",
        "Name[it]": "Vista segnalazione problemi",
        "Name[ka]": "რეპორტერის ხედის პრობლემა",
        "Name[kk]": "Мәселе хабарлағыш көрінісі",
        "Name[ko]": "문제 보고서 보기",
        "Name[nb]": "Problemmeldervisning",
        "Name[nds]": "Problemsöök-Ansicht",
        "Name[nl]": "Probleemrapporteuroverzicht",
        "Name[pl]": "Widok zgłaszania problemów",
        "Name[pt]": "Área de Relatórios de Erros",
        "Name[pt_BR]": "Área do relatórios de erros",
        "Name[ru]": "Панель диагностики проблем",
        "Name[sk]": "Pohľad na zadávač problémov",
        "Name[sl]": "Prikaz poročevalca o težavah",
        "Name[sv]": "Problemrapporteringsvisning",
        "Name[tr]": "Sorun Bildirici Görünümü",
        "Name[ug]": "مەسىلە مەلۇم قىلغۇچ كۆرۈنۈشى",
        "Name[uk]": "Перегляд інструмента звітування про проблеми",
        "Name[x-test]": "xxProblem Reporter Viewxx",
        "Name[zh_CN]": "问题报告程序视图",
        "Name[zh_TW]": "問題回報器檢視"
    },
    "X-KDevelop-Category": "Global",
    "X-KDevelop-Mode": "GUI"
}
