{
    "KPlugin": {
        "Authors": [
            {
                "Name": "David Nolden",
                "Name[ar]": "David Nolden",
                "Name[az]": "David Nolden",
                "Name[ca@valencia]": "David Nolden",
                "Name[ca]": "David Nolden",
                "Name[cs]": "David Nolden",
                "Name[de]": "David Nolden",
                "Name[el]": "David Nolden",
                "Name[en_GB]": "David Nolden",
                "Name[es]": "David Nolden",
                "Name[et]": "David Nolden",
                "Name[eu]": "David Nolden",
                "Name[fi]": "David Nolden",
                "Name[fr]": "David Nolden",
                "Name[gl]": "David Nolden",
                "Name[it]": "David Nolden",
                "Name[ka]": "დევიდ ნოლდენი",
                "Name[ko]": "David Nolden",
                "Name[nl]": "David Nolden",
                "Name[nn]": "David Nolden",
                "Name[pl]": "David Nolden",
                "Name[pt]": "David Nolden",
                "Name[pt_BR]": "David Nolden",
                "Name[ru]": "David Nolden",
                "Name[sk]": "David Nolden",
                "Name[sl]": "David Nolden",
                "Name[sv]": "David Nolden",
                "Name[tr]": "David Nolden",
                "Name[uk]": "David Nolden",
                "Name[x-test]": "xxDavid Noldenxx",
                "Name[zh_CN]": "David Nolden"
            }
        ],
        "Category": "Core",
        "Description": "This plugin allows quick access to project files and language-items like classes/functions.",
        "Description[ar]": "تسمح هذه الملحقة بالوصول السريع إلى ملفّات المشروع وعناصر اللغة كالأصناف والدّوال.",
        "Description[az]": "Bu qoşma, layihə fayllarına və siniflər/funksiyalar kimi dil elementlərinə cəld girişi təmin edir.",
        "Description[ca@valencia]": "Este connector permet un ràpid accés als fitxers del projecte i a elements del llenguatge com classes/funcions.",
        "Description[ca]": "Aquest connector permet un ràpid accés als fitxers del projecte i a elements del llenguatge com classes/funcions.",
        "Description[cs]": "Tento zásuvný modul umožňuje rychlý přístup k souborům projektu a položkám jazyka jako jsou třídy a funkce.",
        "Description[de]": "Dieses Modul bietet schnellen Zugriff auf Projektdateien und Sprachelemente wie Klassen und Funktionen.",
        "Description[el]": "Το πρόσθετο αυτό επιτρέπει τη γρήγορη πρόσβαση σε αρχεία έργου και αντικείμενα γλώσσας όπως κλάσεις/συναρτήσεις.",
        "Description[en_GB]": "This plugin allows quick access to project files and language-items like classes/functions.",
        "Description[es]": "Este complemento permite acceder rápidamente a los archivos del proyecto y a elementos del lenguaje, como clases y funciones.",
        "Description[et]": "See plugin pakub kiiret ligipääsu projekti failidele ja keele elementidele, näiteks klassidele ja funktsioonidele.",
        "Description[eu]": "Plugin honek proiektuen lengoaia-elementu fitxategietara sarbide arina ahalbidetzen du, adibidez klaseak/funtzioak.",
        "Description[fr]": "Ce module permet un accès rapide aux fichiers du projet et aux éléments de langage comme les classes / fonctions.",
        "Description[gl]": "Este complemento permite acceder rapidamente a ficheiros de proxecto e elementos da linguaxe como clases e funcións.",
        "Description[it]": "Questa estensione permette di accedere rapidamente ai file di progetto e agli elementi del linguaggio come le classi/funzioni.",
        "Description[ko]": "이 플러그인은 프로젝트 파일과 클래스/함수와 같은 언어 구성 요소에 빠르게 접근합니다.",
        "Description[nl]": "Deze plugin biedt snel toegamg tot projectbestanden en taal-items zoals classes/functies.",
        "Description[pl]": "Daje szybki dostęp do plików projektu, a także klas i funkcji.",
        "Description[pt]": "Este 'plugin' permite o acesso rápido aos ficheiros dos projectos e aos itens das linguagens, como as classes ou funções.",
        "Description[pt_BR]": "Este plugin permite o rápido acesso a arquivos de projeto e itens da linguagem como classes/funções.",
        "Description[ru]": "Это расширение позволяет быстро переходить к файлам проекта и языковым объектам, таким как классы и функции",
        "Description[sk]": "Tento plugin umožňuje rýchly prístup k súborom projektu a položiek jazyka ako triedy/funkcie.",
        "Description[sl]": "Vstavek omogoča hiter dostop do projektnih datotek in predmetov kot so razredi in funkcije.",
        "Description[sv]": "Insticksprogrammet ger snabb åtkomst av projektfiler och språkobjekt som klasser och funktioner.",
        "Description[tr]": "Bu eklenti proje dosyalarına ve sınıflar/fonksiyonlar gibi dil öğelerine hızlı erişim sağlar.",
        "Description[uk]": "За допомогою цього додатка можна пришвидшити доступ до файлів проєктів і елементів мови на зразок класів або функцій.",
        "Description[x-test]": "xxThis plugin allows quick access to project files and language-items like classes/functions.xx",
        "Description[zh_CN]": "此插件允许快速访问工程文件和诸如类/函数的语言工程。",
        "Description[zh_TW]": "此外掛程式讓您快速存取專案檔案與一些語言的項目，如類別或函式等。",
        "Icon": "quickopen",
        "Id": "kdevquickopen",
        "License": "GPL",
        "Name": "Quick Open",
        "Name[ar]": "فتح سريع",
        "Name[az]": "Tez açmaq",
        "Name[bg]": "Бързо отваряне",
        "Name[bs]": "Brzo otvori",
        "Name[ca@valencia]": "Obertura ràpida",
        "Name[ca]": "Obertura ràpida",
        "Name[cs]": "Rychle otevřít",
        "Name[da]": "Åbn hurtigt",
        "Name[de]": "Schnellöffner",
        "Name[el]": "Γρήγορο άνοιγμα",
        "Name[en_GB]": "Quick Open",
        "Name[es]": "Apertura rápida",
        "Name[et]": "Kiiravamine",
        "Name[eu]": "Ireki arin",
        "Name[fr]": "Ouverture rapide",
        "Name[ga]": "Oscailt Thapa",
        "Name[gl]": "Apertura rápida",
        "Name[hu]": "Gyors megnyitás",
        "Name[it]": "Apertura veloce",
        "Name[ka]": "სწრაფი გახსნა",
        "Name[kk]": "Тез ашу",
        "Name[ko]": "빠른 열기",
        "Name[nb]": "Hurtigåpne",
        "Name[nds]": "Fixopmaken",
        "Name[nl]": "Snel openen",
        "Name[pl]": "Szybkie otwieranie",
        "Name[pt]": "Abertura Rápida",
        "Name[pt_BR]": "Abrir rapidamente",
        "Name[ru]": "Быстрый переход",
        "Name[sk]": "Rýchlo otvoriť",
        "Name[sl]": "Hitro odpiranje",
        "Name[sv]": "Snabböppna",
        "Name[tr]": "Hızlı Aç",
        "Name[ug]": "تېز ئېچىش",
        "Name[uk]": "Швидке відкриття",
        "Name[x-test]": "xxQuick Openxx",
        "Name[zh_CN]": "快速打开",
        "Name[zh_TW]": "快速開啟"
    },
    "X-KDevelop-Category": "Global",
    "X-KDevelop-Interfaces": [
        "org.kdevelop.IQuickOpen"
    ],
    "X-KDevelop-Mode": "GUI"
}
